{
    "asr.relax": {
        "ecut": 100,
        "kptdensity": 2.0
    },
    "asr.gs": {
        "ecut": 100,
        "kptdensity": 2.0
    },
    "asr.dos": {
        "kptdensity": 6.0
    },
    "asr.borncharges": {
        "kptdensity": 1.0
    },
    "asr.bandstructure": {
        "npoints": 50,
        "emptybands": 5
    },
    "asr.polarizability": {
        "kptdensity": 6.0,
        "ecut": 10.0,
        "bandfactor": 2
    },
    "asr.pdos": {
        "kptdensity": 6.0
    },
    "asr.phonons": {
        "n": 1,
        "kptdensity": 1.0,
        "ecut": 100.0
    }

}
